0.77986068354381,0.692272764662736,"8,7,6"
0.764783707464156,0.325267083672464,"5,4,3"
0.715521789399543,0.200264980273000,"5,4,2"
0.707656682661074,0.327833927061098,"6,5,2,3"
0.832550624995335,0.023109463099858,"2,3,4"
0.490167470752668,0.546487869540041,"8,1,4"
0.882035307089534,0.679191958774944,1
0.462472193716750,0.625806162164271,"1,6"
0.116221588393856,0.112363274888125,10
0.128537767823003,0.328584069569835,9